{
  "file_generated_by": "FlutterFire CLI",
  "purpose": "FirebaseAppID & ProjectID for this Firebase app in this directory",
  "GOOGLE_APP_ID": "1:93158396518:ios:5a119667f5aa661db893a7",
  "FIREBASE_PROJECT_ID": "flutter-login-app-3a167",
  "GCM_SENDER_ID": "93158396518"
}