{
  "project_info": {
    "project_number": "93158396518",
    "project_id": "flutter-login-app-3a167",
    "storage_bucket": "flutter-login-app-3a167.appspot.com"
  },
  "client": [
    {
      "client_info": {
        "mobilesdk_app_id": "1:93158396518:android:74bcc2c7807f0576b893a7",
        "android_client_info": {
          "package_name": "com.example.flutter_login_app"
        }
      },
      "oauth_client": [
        {
          "client_id": "93158396518-udfs7apsqmnpppn2lh0fcegk2lpg72a5.apps.googleusercontent.com",
          "client_type": 3
        }
      ],
      "api_key": [
        {
          "current_key": "AIzaSyA0rJtbeKN9VvxNQvQ6HLhu07R_adEHhfE"
        }
      ],
      "services": {
        "appinvite_service": {
          "other_platform_oauth_client": [
            {
              "client_id": "93158396518-udfs7apsqmnpppn2lh0fcegk2lpg72a5.apps.googleusercontent.com",
              "client_type": 3
            },
            {
              "client_id": "93158396518-6g558dl5ql86hdc2nolm2m7155tch4di.apps.googleusercontent.com",
              "client_type": 2,
              "ios_info": {
                "bundle_id": "com.example.flutterLoginApp"
              }
            }
          ]
        }
      }
    }
  ],
  "configuration_version": "1"
}